# Blender v2.92.0 OBJ File: 'Bumper.blend'
# www.blender.org
mtllib Bumper.mtl
o Cylinder
v 0.000000 -0.252140 -1.182093
v 0.000000 0.500000 -1.500000
v 0.452368 -0.252140 -1.092112
v 0.574025 0.500000 -1.385819
v 0.835866 -0.252140 -0.835866
v 1.060660 0.500000 -1.060660
v 1.092112 -0.252140 -0.452368
v 1.385819 0.500000 -0.574025
v 1.182093 -0.252140 0.000000
v 1.500000 0.500000 0.000000
v 1.092112 -0.252140 0.452368
v 1.385819 0.500000 0.574025
v 0.835866 -0.252140 0.835866
v 1.060660 0.500000 1.060660
v 0.452368 -0.252140 1.092112
v 0.574025 0.500000 1.385819
v 0.000000 -0.252140 1.182093
v 0.000000 0.500000 1.500000
v -0.452367 -0.252140 1.092112
v -0.574025 0.500000 1.385819
v -0.835866 -0.252140 0.835866
v -1.060660 0.500000 1.060660
v -1.092112 -0.252140 0.452368
v -1.385819 0.500000 0.574025
v -1.182093 -0.252140 -0.000000
v -1.500000 0.500000 -0.000000
v -1.092112 -0.252140 -0.452368
v -1.385819 0.500000 -0.574025
v -0.835866 -0.252140 -0.835866
v -1.060660 0.500000 -1.060660
v -0.452367 -0.252140 -1.092112
v -0.574024 0.500000 -1.385820
v 0.574025 0.500000 -1.385819
v 0.000000 0.500000 -1.500000
v 1.060660 0.500000 -1.060660
v 1.385819 0.500000 -0.574025
v 1.500000 0.500000 0.000000
v 1.385819 0.500000 0.574025
v 1.060660 0.500000 1.060660
v 0.574025 0.500000 1.385819
v 0.000000 0.500000 1.500000
v -0.574025 0.500000 1.385819
v -1.060660 0.500000 1.060660
v -1.385819 0.500000 0.574025
v -1.500000 0.500000 -0.000000
v -1.385819 0.500000 -0.574025
v -1.060660 0.500000 -1.060660
v -0.574024 0.500000 -1.385820
v 0.144826 0.793313 -0.349642
v -0.000000 0.793313 -0.378450
v 0.267604 0.793313 -0.267604
v 0.349642 0.793313 -0.144826
v 0.378450 0.793313 0.000000
v 0.349642 0.793313 0.144826
v 0.267604 0.793313 0.267604
v 0.144826 0.793313 0.349642
v -0.000000 0.793313 0.378450
v -0.144826 0.793313 0.349642
v -0.267604 0.793313 0.267604
v -0.349642 0.793313 0.144827
v -0.378450 0.793313 -0.000000
v -0.349642 0.793313 -0.144826
v -0.267604 0.793313 -0.267604
v -0.144826 0.793313 -0.349642
v 0.574025 0.500000 -1.385819
v 0.000000 0.500000 -1.500000
v 1.060660 0.500000 -1.060660
v 1.385819 0.500000 -0.574025
v 1.500000 0.500000 0.000000
v 1.385819 0.500000 0.574025
v 1.060660 0.500000 1.060660
v 0.574025 0.500000 1.385819
v 0.000000 0.500000 1.500000
v -0.574025 0.500000 1.385819
v -1.060660 0.500000 1.060660
v -1.385819 0.500000 0.574025
v -1.500000 0.500000 -0.000000
v -1.385819 0.500000 -0.574025
v -1.060660 0.500000 -1.060660
v -0.574024 0.500000 -1.385820
v 0.183844 0.793313 -0.443840
v -0.000000 0.793313 -0.480409
v 0.339700 0.793313 -0.339700
v 0.443840 0.793313 -0.183844
v 0.480409 0.793313 0.000000
v 0.443840 0.793313 0.183845
v 0.339700 0.793313 0.339700
v 0.183844 0.793313 0.443840
v 0.000000 0.793313 0.480409
v -0.183844 0.793313 0.443840
v -0.339700 0.793313 0.339700
v -0.443840 0.793313 0.183845
v -0.480409 0.793313 -0.000000
v -0.443840 0.793313 -0.183844
v -0.339700 0.793313 -0.339700
v -0.183844 0.793313 -0.443840
v 0.144826 0.693313 -0.349642
v -0.000000 0.693313 -0.378450
v 0.267604 0.693313 -0.267604
v 0.349642 0.693313 -0.144826
v 0.378450 0.693313 0.000000
v 0.349642 0.693313 0.144826
v 0.267604 0.693313 0.267604
v 0.144826 0.693313 0.349642
v -0.000000 0.693313 0.378450
v -0.144826 0.693313 0.349642
v -0.267604 0.693313 0.267604
v -0.349642 0.693313 0.144827
v -0.378450 0.693313 -0.000000
v -0.349642 0.693313 -0.144826
v -0.267604 0.693313 -0.267604
v -0.144826 0.693313 -0.349642
v 0.183844 0.793313 -0.443840
v -0.000000 0.793313 -0.480409
v 0.339700 0.793313 -0.339700
v 0.443840 0.793313 -0.183844
v 0.480409 0.793313 0.000000
v 0.443840 0.793313 0.183845
v 0.339700 0.793313 0.339700
v 0.183844 0.793313 0.443840
v 0.000000 0.793313 0.480409
v -0.183844 0.793313 0.443840
v -0.339700 0.793313 0.339700
v -0.443840 0.793313 0.183845
v -0.480409 0.793313 -0.000000
v -0.443840 0.793313 -0.183844
v -0.339700 0.793313 -0.339700
v -0.183844 0.793313 -0.443840
v 0.144826 0.793313 -0.349642
v -0.000000 0.793313 -0.378450
v 0.267604 0.793313 -0.267604
v 0.349642 0.793313 -0.144826
v 0.378450 0.793313 0.000000
v 0.349642 0.793313 0.144826
v 0.267604 0.793313 0.267604
v 0.144826 0.793313 0.349642
v -0.000000 0.793313 0.378450
v -0.144826 0.793313 0.349642
v -0.267604 0.793313 0.267604
v -0.349642 0.793313 0.144827
v -0.378450 0.793313 -0.000000
v -0.349642 0.793313 -0.144826
v -0.267604 0.793313 -0.267604
v -0.144826 0.793313 -0.349642
v 0.287013 0.544078 -1.442910
v 0.817343 0.544078 -1.223240
v 1.223240 0.544078 -0.817343
v 1.442910 0.544078 -0.287013
v 1.442910 0.544078 0.287013
v 1.223240 0.544078 0.817343
v 0.817343 0.544078 1.223240
v 0.287013 0.544078 1.442910
v -0.287012 0.544078 1.442910
v -0.817342 0.544078 1.223240
v -1.223240 0.544078 0.817343
v -1.442910 0.544078 0.287013
v -1.442910 0.544078 -0.287013
v -1.223239 0.544078 -0.817343
v -0.817342 0.544078 -1.223240
v -0.287012 0.544078 -1.442910
v 0.091922 0.837391 -0.462124
v 0.261772 0.837391 -0.391770
v 0.391770 0.837391 -0.261772
v 0.462124 0.837391 -0.091922
v 0.462124 0.837391 0.091922
v 0.391770 0.837391 0.261772
v 0.261772 0.837391 0.391770
v 0.091922 0.837391 0.462124
v -0.091922 0.837391 0.462124
v -0.261772 0.837391 0.391770
v -0.391770 0.837391 0.261773
v -0.462124 0.837391 0.091922
v -0.462124 0.837391 -0.091922
v -0.391770 0.837391 -0.261772
v -0.261772 0.837391 -0.391770
v -0.091922 0.837391 -0.462125
v -0.000000 0.646656 -0.990204
v 0.378935 0.646656 -0.914829
v 0.700180 0.646656 -0.700180
v 0.914830 0.646656 -0.378935
v 0.990204 0.646656 0.000000
v 0.914830 0.646656 0.378935
v 0.700180 0.646656 0.700180
v 0.378935 0.646656 0.914830
v 0.000000 0.646656 0.990204
v -0.378935 0.646656 0.914830
v -0.700180 0.646656 0.700180
v -0.914829 0.646656 0.378935
v -0.990204 0.646656 -0.000000
v -0.914829 0.646656 -0.378935
v -0.700180 0.646656 -0.700180
v -0.378934 0.646656 -0.914830
v -0.189467 0.690734 -0.952517
v -0.539557 0.690734 -0.807505
v -0.807505 0.690734 -0.539558
v -0.952517 0.690734 -0.189467
v -0.952517 0.690734 0.189467
v -0.807505 0.690734 0.539558
v -0.539557 0.690734 0.807505
v -0.189467 0.690734 0.952517
v 0.189467 0.690734 0.952517
v 0.539558 0.690734 0.807505
v 0.807505 0.690734 0.539558
v 0.952517 0.690734 0.189467
v 0.952517 0.690734 -0.189467
v 0.807505 0.690734 -0.539558
v 0.539558 0.690734 -0.807505
v 0.189467 0.690734 -0.952517
v 0.183844 0.854907 -0.443840
v -0.000000 0.854907 -0.480409
v 0.339700 0.854907 -0.339700
v 0.443840 0.854907 -0.183844
v 0.480409 0.854907 0.000000
v 0.443840 0.854907 0.183845
v 0.339700 0.854907 0.339700
v 0.183844 0.854907 0.443840
v 0.000000 0.854907 0.480409
v -0.183844 0.854907 0.443840
v -0.339700 0.854907 0.339700
v -0.443840 0.854907 0.183845
v -0.480409 0.854907 -0.000000
v -0.443840 0.854907 -0.183844
v -0.339700 0.854907 -0.339700
v -0.183844 0.854907 -0.443840
v 0.144826 0.854907 -0.349642
v -0.000000 0.854907 -0.378450
v 0.267604 0.854907 -0.267604
v 0.349642 0.854907 -0.144826
v 0.378450 0.854907 0.000000
v 0.349642 0.854907 0.144826
v 0.267604 0.854907 0.267604
v 0.144826 0.854907 0.349642
v -0.000000 0.854907 0.378450
v -0.144826 0.854907 0.349642
v -0.267604 0.854907 0.267604
v -0.349642 0.854907 0.144827
v -0.378450 0.854907 -0.000000
v -0.349642 0.854907 -0.144826
v -0.267604 0.854907 -0.267604
v -0.144826 0.854907 -0.349642
vt 1.000000 0.500000
vt 1.000000 1.000000
vt 0.937500 1.000000
vt 0.937500 0.500000
vt 0.875000 1.000000
vt 0.875000 0.500000
vt 0.812500 1.000000
vt 0.812500 0.500000
vt 0.750000 1.000000
vt 0.750000 0.500000
vt 0.687500 1.000000
vt 0.687500 0.500000
vt 0.625000 1.000000
vt 0.625000 0.500000
vt 0.562500 1.000000
vt 0.562500 0.500000
vt 0.500000 1.000000
vt 0.500000 0.500000
vt 0.437500 1.000000
vt 0.437500 0.500000
vt 0.375000 1.000000
vt 0.375000 0.500000
vt 0.312500 1.000000
vt 0.312500 0.500000
vt 0.250000 1.000000
vt 0.250000 0.500000
vt 0.187500 1.000000
vt 0.187500 0.500000
vt 0.125000 1.000000
vt 0.125000 0.500000
vt 0.062500 1.000000
vt 0.125000 1.000000
vt 0.062500 1.000000
vt 0.062500 0.500000
vt 0.000000 1.000000
vt 0.000000 0.500000
vt 0.750000 0.490000
vt 0.841844 0.471731
vt 0.919706 0.419706
vt 0.971731 0.341844
vt 0.990000 0.250000
vt 0.971731 0.158156
vt 0.919706 0.080294
vt 0.841844 0.028269
vt 0.750000 0.010000
vt 0.658156 0.028269
vt 0.580294 0.080294
vt 0.528269 0.158156
vt 0.510000 0.250000
vt 0.528269 0.341844
vt 0.580294 0.419706
vt 0.658156 0.471731
vt 0.250000 1.000000
vt 0.312500 1.000000
vt 0.312500 1.000000
vt 0.281250 1.000000
vt 0.250000 1.000000
vt 0.875000 1.000000
vt 0.812500 1.000000
vt 0.562500 1.000000
vt 0.500000 1.000000
vt 1.000000 1.000000
vt 0.937500 1.000000
vt 0.187500 1.000000
vt 0.687500 1.000000
vt 0.625000 1.000000
vt 0.375000 1.000000
vt 0.000000 1.000000
vt 0.750000 1.000000
vt 0.437500 1.000000
vt 0.750000 1.000000
vt 0.718750 1.000000
vt 0.687500 1.000000
vt 0.218750 1.000000
vt 0.187500 1.000000
vt 0.656250 1.000000
vt 0.625000 1.000000
vt 0.156250 1.000000
vt 0.125000 1.000000
vt 0.593750 1.000000
vt 0.562500 1.000000
vt 0.093750 1.000000
vt 0.062500 1.000000
vt 0.531250 1.000000
vt 0.500000 1.000000
vt 1.000000 1.000000
vt 0.968750 1.000000
vt 0.937500 1.000000
vt 0.031250 1.000000
vt 0.000000 1.000000
vt 0.468750 1.000000
vt 0.437500 1.000000
vt 0.906250 1.000000
vt 0.875000 1.000000
vt 0.406250 1.000000
vt 0.375000 1.000000
vt 0.843750 1.000000
vt 0.812500 1.000000
vt 0.343750 1.000000
vt 0.781250 1.000000
vt 0.189448 0.250000
vt 0.194057 0.273172
vt 0.194057 0.273172
vt 0.189448 0.250000
vt 0.326865 0.250000
vt 0.323940 0.264708
vt 0.321014 0.279415
vt 0.321014 0.279415
vt 0.326865 0.250000
vt 0.194057 0.226828
vt 0.194057 0.226828
vt 0.312683 0.291884
vt 0.304352 0.304352
vt 0.304352 0.304352
vt 0.207183 0.207183
vt 0.207183 0.207183
vt 0.250000 0.326865
vt 0.235292 0.323940
vt 0.220585 0.321014
vt 0.220585 0.321014
vt 0.250000 0.326865
vt 0.291884 0.312683
vt 0.279415 0.321014
vt 0.279415 0.321014
vt 0.226828 0.194057
vt 0.226828 0.194057
vt 0.208116 0.312683
vt 0.195648 0.304352
vt 0.195648 0.304352
vt 0.264708 0.323940
vt 0.250000 0.189448
vt 0.250000 0.189448
vt 0.187317 0.291884
vt 0.178986 0.279415
vt 0.178986 0.279415
vt 0.273172 0.194057
vt 0.273172 0.194057
vt 0.176060 0.264708
vt 0.173135 0.250000
vt 0.173135 0.250000
vt 0.292817 0.207183
vt 0.292817 0.207183
vt 0.176060 0.235292
vt 0.178986 0.220585
vt 0.178986 0.220585
vt 0.273172 0.305943
vt 0.250000 0.310552
vt 0.226828 0.305943
vt 0.207183 0.292817
vt 0.194057 0.273172
vt 0.189448 0.250000
vt 0.194057 0.226828
vt 0.207183 0.207183
vt 0.226828 0.194057
vt 0.250000 0.189448
vt 0.273172 0.194057
vt 0.292817 0.207183
vt 0.305943 0.226828
vt 0.310552 0.250000
vt 0.305943 0.273172
vt 0.292817 0.292817
vt 0.321014 0.220585
vt 0.323940 0.235292
vt 0.321014 0.220585
vt 0.207183 0.292817
vt 0.207183 0.292817
vt 0.304352 0.195648
vt 0.312683 0.208116
vt 0.304352 0.195648
vt 0.250000 0.310552
vt 0.273172 0.305943
vt 0.273172 0.305943
vt 0.250000 0.310552
vt 0.226828 0.305943
vt 0.226828 0.305943
vt 0.279415 0.178986
vt 0.291884 0.187317
vt 0.279415 0.178986
vt 0.292817 0.292817
vt 0.292817 0.292817
vt 0.250000 0.173135
vt 0.264708 0.176060
vt 0.250000 0.173135
vt 0.305943 0.273172
vt 0.305943 0.273172
vt 0.220585 0.178986
vt 0.235292 0.176060
vt 0.220585 0.178986
vt 0.310552 0.250000
vt 0.310552 0.250000
vt 0.195648 0.195648
vt 0.208116 0.187317
vt 0.195648 0.195648
vt 0.305943 0.226828
vt 0.305943 0.226828
vt 0.187317 0.208116
vt 0.304352 0.304352
vt 0.321014 0.279415
vt 0.220585 0.321014
vt 0.250000 0.326865
vt 0.194057 0.273172
vt 0.189448 0.250000
vt 0.279415 0.321014
vt 0.195648 0.304352
vt 0.194057 0.226828
vt 0.178986 0.279415
vt 0.207183 0.207183
vt 0.173135 0.250000
vt 0.226828 0.194057
vt 0.178986 0.220585
vt 0.250000 0.189448
vt 0.195648 0.195648
vt 0.273172 0.194057
vt 0.220585 0.178986
vt 0.250000 0.310552
vt 0.273172 0.305943
vt 0.292817 0.292817
vt 0.305943 0.273172
vt 0.310552 0.250000
vt 0.326865 0.250000
vt 0.305943 0.226828
vt 0.321014 0.220585
vt 0.292817 0.207183
vt 0.304352 0.195648
vt 0.279415 0.178986
vt 0.250000 0.173135
vt 0.207183 0.292817
vt 0.226828 0.305943
vt 0.280315 0.402403
vt 0.310630 0.396373
vt 0.341844 0.471731
vt 0.295922 0.480866
vt 0.336329 0.379201
vt 0.362029 0.362029
vt 0.419706 0.419706
vt 0.380775 0.445718
vt 0.379201 0.336329
vt 0.396373 0.310630
vt 0.471731 0.341844
vt 0.445718 0.380775
vt 0.402403 0.280315
vt 0.408433 0.250000
vt 0.490000 0.250000
vt 0.480866 0.295922
vt 0.402403 0.219685
vt 0.396373 0.189370
vt 0.471731 0.158156
vt 0.480866 0.204078
vt 0.379201 0.163671
vt 0.362029 0.137971
vt 0.419706 0.080294
vt 0.445718 0.119225
vt 0.336329 0.120799
vt 0.310630 0.103627
vt 0.341844 0.028269
vt 0.380775 0.054282
vt 0.280315 0.097597
vt 0.250000 0.091567
vt 0.250000 0.010000
vt 0.295922 0.019134
vt 0.219685 0.097597
vt 0.189370 0.103627
vt 0.158156 0.028269
vt 0.204078 0.019134
vt 0.163671 0.120799
vt 0.137971 0.137971
vt 0.080294 0.080294
vt 0.119225 0.054282
vt 0.120799 0.163671
vt 0.103627 0.189370
vt 0.028269 0.158156
vt 0.054282 0.119225
vt 0.097597 0.219685
vt 0.091567 0.250000
vt 0.010000 0.250000
vt 0.019134 0.204078
vt 0.097597 0.280315
vt 0.103627 0.310630
vt 0.028269 0.341844
vt 0.019134 0.295922
vt 0.120799 0.336329
vt 0.137971 0.362029
vt 0.080294 0.419706
vt 0.054282 0.380775
vt 0.163671 0.379201
vt 0.189370 0.396373
vt 0.158156 0.471731
vt 0.119225 0.445718
vt 0.219685 0.402403
vt 0.250000 0.408433
vt 0.250000 0.490000
vt 0.204078 0.480866
vn 0.1802 -0.3829 -0.9060
vn 0.5132 -0.3829 -0.7681
vn 0.7681 -0.3829 -0.5132
vn 0.9060 -0.3829 -0.1802
vn 0.9060 -0.3829 0.1802
vn 0.7681 -0.3829 0.5132
vn 0.5132 -0.3829 0.7681
vn 0.1802 -0.3829 0.9060
vn -0.1802 -0.3829 0.9060
vn -0.5132 -0.3829 0.7681
vn -0.7681 -0.3829 0.5132
vn -0.9060 -0.3829 0.1802
vn -0.9060 -0.3829 -0.1802
vn -0.7681 -0.3829 -0.5132
vn 0.0000 0.0000 1.0000
vn -0.5132 -0.3829 -0.7681
vn -0.1802 -0.3829 -0.9060
vn 0.0000 -1.0000 0.0000
vn -0.9808 -0.0000 0.1951
vn 0.9808 0.0000 0.1951
vn -0.9808 0.0000 -0.1951
vn 0.8315 0.0000 0.5556
vn -0.8315 -0.0000 -0.5556
vn 0.5556 -0.0000 0.8315
vn -0.5556 -0.0000 -0.8315
vn 0.1951 0.0000 0.9808
vn 0.1951 0.0000 -0.9808
vn -0.1951 0.0000 -0.9808
vn -0.1951 -0.0000 0.9808
vn 0.5556 0.0000 -0.8315
vn -0.5556 0.0000 0.8315
vn 0.8315 -0.0000 -0.5556
vn -0.8315 0.0000 0.5556
vn 0.9808 0.0000 -0.1951
vn 0.0000 1.0000 0.0000
vn 0.2200 0.9497 -0.2228
vn 0.2885 0.9497 -0.1216
vn 0.3131 0.9497 -0.0019
vn 0.2900 0.9497 0.1180
vn 0.2228 0.9497 0.2200
vn 0.1216 0.9497 0.2885
vn 0.0019 0.9497 0.3131
vn -0.1180 0.9497 0.2900
vn -0.2200 0.9497 0.2228
vn -0.2885 0.9497 0.1216
vn -0.3131 0.9497 0.0019
vn -0.2900 0.9497 -0.1180
vn -0.2228 0.9497 -0.2200
vn -0.1216 0.9497 -0.2885
vn -0.0019 0.9497 -0.3131
vn 0.1180 0.9497 -0.2900
vn 0.2319 0.9271 -0.2945
vn 0.1015 0.9271 -0.3608
vn -0.0443 0.9271 -0.3722
vn -0.1833 0.9271 -0.3269
vn -0.2945 0.9271 -0.2319
vn -0.3608 0.9271 -0.1015
vn -0.3722 0.9271 0.0443
vn -0.3269 0.9271 0.1833
vn -0.2319 0.9271 0.2945
vn -0.1015 0.9271 0.3608
vn 0.0443 0.9271 0.3722
vn 0.1833 0.9271 0.3269
vn 0.2945 0.9271 0.2319
vn 0.3608 0.9271 0.1015
vn 0.3722 0.9271 -0.0443
vn 0.3269 0.9271 -0.1833
vn -0.2200 0.9497 -0.2228
vn -0.3269 0.9271 -0.1833
vn -0.2885 0.9497 -0.1216
vn -0.3722 0.9271 -0.0443
vn -0.3131 0.9497 -0.0019
vn -0.3608 0.9271 0.1015
vn -0.2900 0.9497 0.1180
vn -0.2945 0.9271 0.2319
vn -0.2228 0.9497 0.2200
vn -0.1833 0.9271 0.3269
vn -0.1216 0.9497 0.2885
vn -0.0443 0.9271 0.3722
vn -0.0019 0.9497 0.3131
vn 0.1015 0.9271 0.3608
vn 0.1180 0.9497 0.2900
vn 0.2319 0.9271 0.2945
vn 0.2200 0.9497 0.2228
vn 0.3269 0.9271 0.1833
vn 0.2885 0.9497 0.1216
vn 0.3722 0.9271 0.0443
vn 0.3131 0.9497 0.0019
vn 0.3608 0.9271 -0.1015
vn 0.2900 0.9497 -0.1180
vn 0.2945 0.9271 -0.2319
vn 0.2228 0.9497 -0.2200
vn 0.1833 0.9271 -0.3269
vn 0.1216 0.9497 -0.2885
vn 0.0443 0.9271 -0.3722
vn 0.0019 0.9497 -0.3131
vn -0.1015 0.9271 -0.3608
vn -0.1180 0.9497 -0.2900
vn -0.2319 0.9271 -0.2945
usemtl Base
s off
f 1/1/1 2/2/1 4/3/1 3/4/1
f 3/4/2 4/3/2 6/5/2 5/6/2
f 5/6/3 6/5/3 8/7/3 7/8/3
f 7/8/4 8/7/4 10/9/4 9/10/4
f 9/10/5 10/9/5 12/11/5 11/12/5
f 11/12/6 12/11/6 14/13/6 13/14/6
f 13/14/7 14/13/7 16/15/7 15/16/7
f 15/16/8 16/15/8 18/17/8 17/18/8
f 17/18/9 18/17/9 20/19/9 19/20/9
f 19/20/10 20/19/10 22/21/10 21/22/10
f 21/22/11 22/21/11 24/23/11 23/24/11
f 23/24/12 24/23/12 26/25/12 25/26/12
f 25/26/13 26/25/13 28/27/13 27/28/13
f 27/28/14 28/27/14 30/29/14 29/30/14
f 32/31/15 30/29/15 47/32/15 48/33/15
f 29/30/16 30/29/16 32/31/16 31/34/16
f 31/34/17 32/31/17 2/35/17 1/36/17
f 1/37/18 3/38/18 5/39/18 7/40/18 9/41/18 11/42/18 13/43/18 15/44/18 17/45/18 19/46/18 21/47/18 23/48/18 25/49/18 27/50/18 29/51/18 31/52/18
f 45/53/19 44/54/19 76/55/19 156/56/19 77/57/19
f 8/7/15 6/5/15 35/58/15 36/59/15
f 18/17/15 16/15/15 40/60/15 41/61/15
f 4/3/15 2/2/15 34/62/15 33/63/15
f 28/27/15 26/25/15 45/53/15 46/64/15
f 14/13/15 12/11/15 38/65/15 39/66/15
f 24/23/15 22/21/15 43/67/15 44/54/15
f 2/35/15 32/31/15 48/33/15 34/68/15
f 10/9/15 8/7/15 36/59/15 37/69/15
f 20/19/15 18/17/15 41/61/15 42/70/15
f 30/29/15 28/27/15 46/64/15 47/32/15
f 6/5/15 4/3/15 33/63/15 35/58/15
f 16/15/15 14/13/15 39/66/15 40/60/15
f 26/25/15 24/23/15 44/54/15 45/53/15
f 12/11/15 10/9/15 37/69/15 38/65/15
f 22/21/15 20/19/15 42/70/15 43/67/15
f 38/65/20 37/69/20 69/71/20 149/72/20 70/73/20
f 46/64/21 45/53/21 77/57/21 157/74/21 78/75/21
f 39/66/22 38/65/22 70/73/22 150/76/22 71/77/22
f 47/32/23 46/64/23 78/75/23 158/78/23 79/79/23
f 40/60/24 39/66/24 71/77/24 151/80/24 72/81/24
f 48/33/25 47/32/25 79/79/25 159/82/25 80/83/25
f 41/61/26 40/60/26 72/81/26 152/84/26 73/85/26
f 33/63/27 34/62/27 66/86/27 145/87/27 65/88/27
f 34/68/28 48/33/28 80/83/28 160/89/28 66/90/28
f 42/70/29 41/61/29 73/85/29 153/91/29 74/92/29
f 35/58/30 33/63/30 65/88/30 146/93/30 67/94/30
f 43/67/31 42/70/31 74/92/31 154/95/31 75/96/31
f 36/59/32 35/58/32 67/94/32 147/97/32 68/98/32
f 44/54/33 43/67/33 75/96/33 155/99/33 76/55/33
f 37/69/34 36/59/34 68/98/34 148/100/34 69/71/34
f 61/101/15 62/102/15 142/103/15 141/104/15
f 85/105/19 164/106/19 84/107/19 116/108/19 117/109/19
f 60/110/15 61/101/15 141/104/15 140/111/15
f 84/107/33 163/112/33 83/113/33 115/114/33 116/108/33
f 59/115/15 60/110/15 140/111/15 139/116/15
f 82/117/26 176/118/26 96/119/26 128/120/26 114/121/26
f 83/113/31 162/122/31 81/123/31 113/124/31 115/114/31
f 58/125/15 59/115/15 139/116/15 138/126/15
f 96/119/24 175/127/24 95/128/24 127/129/24 128/120/24
f 81/123/29 161/130/29 82/117/29 114/121/29 113/124/29
f 57/131/15 58/125/15 138/126/15 137/132/15
f 95/128/22 174/133/22 94/134/22 126/135/22 127/129/22
f 56/136/15 57/131/15 137/132/15 136/137/15
f 94/134/20 173/138/20 93/139/20 125/140/20 126/135/20
f 55/141/15 56/136/15 136/137/15 135/142/15
f 93/139/34 172/143/34 92/144/34 124/145/34 125/140/34
f 97/146/35 98/147/35 112/148/35 111/149/35 110/150/35 109/151/35 108/152/35 107/153/35 106/154/35 105/155/35 104/156/35 103/157/35 102/158/35 101/159/35 100/160/35 99/161/35
f 86/162/21 165/163/21 85/105/21 117/109/21 118/164/21
f 62/102/15 63/165/15 143/166/15 142/103/15
f 87/167/23 166/168/23 86/162/23 118/164/23 119/169/23
f 50/170/15 49/171/15 129/172/15 130/173/15
f 63/165/15 64/174/15 144/175/15 143/166/15
f 88/176/25 167/177/25 87/167/25 119/169/25 120/178/25
f 49/171/15 51/179/15 131/180/15 129/172/15
f 64/174/15 50/170/15 130/173/15 144/175/15
f 89/181/28 168/182/28 88/176/28 120/178/28 121/183/28
f 51/179/15 52/184/15 132/185/15 131/180/15
f 90/186/27 169/187/27 89/181/27 121/183/27 122/188/27
f 52/184/15 53/189/15 133/190/15 132/185/15
f 91/191/30 170/192/30 90/186/30 122/188/30 123/193/30
f 53/189/15 54/194/15 134/195/15 133/190/15
f 92/144/32 171/196/32 91/191/32 123/193/32 124/145/32
f 54/194/15 55/141/15 135/142/15 134/195/15
usemtl TopRing
f 61/101/34 60/110/34 108/152/34 109/151/34
f 54/194/21 53/189/21 101/159/21 102/158/21
f 62/102/20 61/101/20 109/151/20 110/150/20
f 55/141/23 54/194/23 102/158/23 103/157/23
f 63/165/22 62/102/22 110/150/22 111/149/22
f 56/136/25 55/141/25 103/157/25 104/156/25
f 64/174/24 63/165/24 111/149/24 112/148/24
f 57/131/28 56/136/28 104/156/28 105/155/28
f 49/171/29 50/170/29 98/147/29 97/146/29
f 50/170/26 64/174/26 112/148/26 98/147/26
f 58/125/27 57/131/27 105/155/27 106/154/27
f 51/179/31 49/171/31 97/146/31 99/161/31
f 59/115/30 58/125/30 106/154/30 107/153/30
f 52/184/33 51/179/33 99/161/33 100/160/33
f 60/110/32 59/115/32 107/153/32 108/152/32
f 53/189/19 52/184/19 100/160/19 101/159/19
f 116/108/32 115/114/32 211/197/32 212/198/32
f 114/121/28 128/120/28 224/199/28 210/200/28
f 141/104/20 142/103/20 238/201/20 237/202/20
f 115/114/30 113/124/30 209/203/30 211/197/30
f 128/120/25 127/129/25 223/204/25 224/199/25
f 140/111/34 141/104/34 237/202/34 236/205/34
f 113/124/27 114/121/27 210/200/27 209/203/27
f 127/129/23 126/135/23 222/206/23 223/204/23
f 139/116/32 140/111/32 236/205/32 235/207/32
f 126/135/21 125/140/21 221/208/21 222/206/21
f 138/126/30 139/116/30 235/207/30 234/209/30
f 125/140/19 124/145/19 220/210/19 221/208/19
f 137/132/27 138/126/27 234/209/27 233/211/27
f 124/145/33 123/193/33 219/212/33 220/210/33
f 136/137/28 137/132/28 233/211/28 232/213/28
f 123/193/31 122/188/31 218/214/31 219/212/31
f 226/215/35 225/216/35 209/203/35 210/200/35
f 225/216/35 227/217/35 211/197/35 209/203/35
f 227/217/35 228/218/35 212/198/35 211/197/35
f 228/218/35 229/219/35 213/220/35 212/198/35
f 229/219/35 230/221/35 214/222/35 213/220/35
f 230/221/35 231/223/35 215/224/35 214/222/35
f 231/223/35 232/213/35 216/225/35 215/224/35
f 232/213/35 233/211/35 217/226/35 216/225/35
f 233/211/35 234/209/35 218/214/35 217/226/35
f 234/209/35 235/207/35 219/212/35 218/214/35
f 235/207/35 236/205/35 220/210/35 219/212/35
f 236/205/35 237/202/35 221/208/35 220/210/35
f 237/202/35 238/201/35 222/206/35 221/208/35
f 238/201/35 239/227/35 223/204/35 222/206/35
f 239/227/35 240/228/35 224/199/35 223/204/35
f 240/228/35 226/215/35 210/200/35 224/199/35
f 142/103/22 143/166/22 239/227/22 238/201/22
f 130/173/29 129/172/29 225/216/29 226/215/29
f 117/109/34 116/108/34 212/198/34 213/220/34
f 143/166/24 144/175/24 240/228/24 239/227/24
f 129/172/31 131/180/31 227/217/31 225/216/31
f 118/164/20 117/109/20 213/220/20 214/222/20
f 144/175/26 130/173/26 226/215/26 240/228/26
f 131/180/33 132/185/33 228/218/33 227/217/33
f 119/169/22 118/164/22 214/222/22 215/224/22
f 132/185/19 133/190/19 229/219/19 228/218/19
f 120/178/24 119/169/24 215/224/24 216/225/24
f 133/190/21 134/195/21 230/221/21 229/219/21
f 121/183/26 120/178/26 216/225/26 217/226/26
f 134/195/23 135/142/23 231/223/23 230/221/23
f 122/188/29 121/183/29 217/226/29 218/214/29
f 135/142/25 136/137/25 232/213/25 231/223/25
usemtl TopClockwise
f 208/229/36 178/230/36 65/231/36 145/232/36
f 207/233/37 179/234/37 67/235/37 146/236/37
f 206/237/38 180/238/38 68/239/38 147/240/38
f 205/241/39 181/242/39 69/243/39 148/244/39
f 204/245/40 182/246/40 70/247/40 149/248/40
f 203/249/41 183/250/41 71/251/41 150/252/41
f 202/253/42 184/254/42 72/255/42 151/256/42
f 201/257/43 185/258/43 73/259/43 152/260/43
f 200/261/44 186/262/44 74/263/44 153/264/44
f 199/265/45 187/266/45 75/267/45 154/268/45
f 198/269/46 188/270/46 76/271/46 155/272/46
f 197/273/47 189/274/47 77/275/47 156/276/47
f 196/277/48 190/278/48 78/279/48 157/280/48
f 195/281/49 191/282/49 79/283/49 158/284/49
f 194/285/50 192/286/50 80/287/50 159/288/50
f 193/289/51 177/290/51 66/291/51 160/292/51
f 176/118/52 82/117/52 177/290/52 193/289/52
f 175/127/53 96/119/53 192/286/53 194/285/53
f 174/133/54 95/128/54 191/282/54 195/281/54
f 173/138/55 94/134/55 190/278/55 196/277/55
f 172/143/56 93/139/56 189/274/56 197/273/56
f 171/196/57 92/144/57 188/270/57 198/269/57
f 170/192/58 91/191/58 187/266/58 199/265/58
f 169/187/59 90/186/59 186/262/59 200/261/59
f 168/182/60 89/181/60 185/258/60 201/257/60
f 167/177/61 88/176/61 184/254/61 202/253/61
f 166/168/62 87/167/62 183/250/62 203/249/62
f 165/163/63 86/162/63 182/246/63 204/245/63
f 164/106/64 85/105/64 181/242/64 205/241/64
f 163/112/65 84/107/65 180/238/65 206/237/65
f 162/122/66 83/113/66 179/234/66 207/233/66
f 161/130/67 81/123/67 178/230/67 208/229/67
usemtl TopAntiClockwise
f 192/286/68 193/289/68 160/292/68 80/287/68
f 96/119/69 176/118/69 193/289/69 192/286/69
f 191/282/70 194/285/70 159/288/70 79/283/70
f 95/128/71 175/127/71 194/285/71 191/282/71
f 190/278/72 195/281/72 158/284/72 78/279/72
f 94/134/73 174/133/73 195/281/73 190/278/73
f 189/274/74 196/277/74 157/280/74 77/275/74
f 93/139/75 173/138/75 196/277/75 189/274/75
f 188/270/76 197/273/76 156/276/76 76/271/76
f 92/144/77 172/143/77 197/273/77 188/270/77
f 187/266/78 198/269/78 155/272/78 75/267/78
f 91/191/79 171/196/79 198/269/79 187/266/79
f 186/262/80 199/265/80 154/268/80 74/263/80
f 90/186/81 170/192/81 199/265/81 186/262/81
f 185/258/82 200/261/82 153/264/82 73/259/82
f 89/181/83 169/187/83 200/261/83 185/258/83
f 184/254/84 201/257/84 152/260/84 72/255/84
f 88/176/85 168/182/85 201/257/85 184/254/85
f 183/250/86 202/253/86 151/256/86 71/251/86
f 87/167/87 167/177/87 202/253/87 183/250/87
f 182/246/88 203/249/88 150/252/88 70/247/88
f 86/162/89 166/168/89 203/249/89 182/246/89
f 181/242/90 204/245/90 149/248/90 69/243/90
f 85/105/91 165/163/91 204/245/91 181/242/91
f 180/238/92 205/241/92 148/244/92 68/239/92
f 84/107/93 164/106/93 205/241/93 180/238/93
f 179/234/94 206/237/94 147/240/94 67/235/94
f 83/113/95 163/112/95 206/237/95 179/234/95
f 178/230/96 207/233/96 146/236/96 65/231/96
f 81/123/97 162/122/97 207/233/97 178/230/97
f 177/290/98 208/229/98 145/232/98 66/291/98
f 82/117/99 161/130/99 208/229/99 177/290/99
