%YAML 1.1
%TAG !u! tag:unity3d.com,2011:
--- !u!64 &-2913402335900044248
MeshCollider:
  m_ObjectHideFlags: 0
  m_CorrespondingSourceObject: {fileID: 0}
  m_PrefabInstance: {fileID: 0}
  m_PrefabAsset: {fileID: 0}
  m_GameObject: {fileID: 7843949281172165963}
  m_Material: {fileID: 0}
  m_IsTrigger: 0
  m_Enabled: 1
  serializedVersion: 4
  m_Convex: 1
  m_CookingOptions: 30
  m_Mesh: {fileID: -3298800115395149385, guid: 59489a204dd7652408943dad6e0be963, type: 3}
--- !u!114 &1345093557329865736
MonoBehaviour:
  m_ObjectHideFlags: 0
  m_CorrespondingSourceObject: {fileID: 0}
  m_PrefabInstance: {fileID: 0}
  m_PrefabAsset: {fileID: 0}
  m_GameObject: {fileID: 7843949281172165963}
  m_Enabled: 1
  m_EditorHideFlags: 0
  m_Script: {fileID: 11500000, guid: 6199bb547ac13bf459c70c60f599e12d, type: 3}
  m_Name: 
  m_EditorClassIdentifier: 
  bump_force: 40
  myModel: {fileID: 1249332936085466514}
  anim_duration: 0.1
  anim_scale: 1.2
--- !u!1001 &6924890936736458778
PrefabInstance:
  m_ObjectHideFlags: 0
  serializedVersion: 2
  m_Modification:
    m_TransformParent: {fileID: 0}
    m_Modifications:
    - target: {fileID: -8679921383154817045, guid: fcb97b2145165854e801d8d48eb94825, type: 3}
      propertyPath: m_RootOrder
      value: 0
      objectReference: {fileID: 0}
    - target: {fileID: -8679921383154817045, guid: fcb97b2145165854e801d8d48eb94825, type: 3}
      propertyPath: m_LocalEulerAnglesHint.x
      value: 0
      objectReference: {fileID: 0}
    - target: {fileID: -8679921383154817045, guid: fcb97b2145165854e801d8d48eb94825, type: 3}
      propertyPath: m_LocalEulerAnglesHint.y
      value: 0
      objectReference: {fileID: 0}
    - target: {fileID: -8679921383154817045, guid: fcb97b2145165854e801d8d48eb94825, type: 3}
      propertyPath: m_LocalEulerAnglesHint.z
      value: 0
      objectReference: {fileID: 0}
    - target: {fileID: 919132149155446097, guid: fcb97b2145165854e801d8d48eb94825, type: 3}
      propertyPath: m_Name
      value: Bumper
      objectReference: {fileID: 0}
    - target: {fileID: 8164078558771037576, guid: fcb97b2145165854e801d8d48eb94825, type: 3}
      propertyPath: m_Name
      value: Model
      objectReference: {fileID: 0}
    m_RemovedComponents: []
  m_SourcePrefab: {fileID: 100100000, guid: fcb97b2145165854e801d8d48eb94825, type: 3}
--- !u!1 &7843949281172165963 stripped
GameObject:
  m_CorrespondingSourceObject: {fileID: 919132149155446097, guid: fcb97b2145165854e801d8d48eb94825, type: 3}
  m_PrefabInstance: {fileID: 6924890936736458778}
  m_PrefabAsset: {fileID: 0}
--- !u!1 &1249332936085466514 stripped
GameObject:
  m_CorrespondingSourceObject: {fileID: 8164078558771037576, guid: fcb97b2145165854e801d8d48eb94825, type: 3}
  m_PrefabInstance: {fileID: 6924890936736458778}
  m_PrefabAsset: {fileID: 0}
